[
{
    "model": "check.printer",
    "pk": 2,
    "fields": {
        "name": "\u041a\u0443\u0445\u043d\u044f \u043d\u0430 \u041b\u0435\u043d\u0438\u043d\u0430",
        "api_key": "EVo5I9O0iB",
        "check_type": "KT",
        "point_id": 34
    }
},
{
    "model": "check.printer",
    "pk": 3,
    "fields": {
        "name": "\u041a\u043b\u0438\u0435\u043d\u0442 \u043d\u0430 \u041b\u0435\u043d\u0438\u043d\u0430",
        "api_key": "vS1fuPTzZ5",
        "check_type": "CL",
        "point_id": 34
    }
},
{
    "model": "check.printer",
    "pk": 4,
    "fields": {
        "name": "\u041a\u0443\u0445\u043d\u044f \u043d\u0430 \u041f\u0440\u0435\u043e\u0431\u0440\u0430\u0436\u0435\u043d\u0441\u043a\u043e\u0433\u043e",
        "api_key": "AKqKNprqB6",
        "check_type": "KT",
        "point_id": 12
    }
},
{
    "model": "check.printer",
    "pk": 5,
    "fields": {
        "name": "\u041a\u043b\u0438\u0435\u043d\u0442 \u043d\u0430 \u041f\u0440\u0435\u043e\u0431\u0440\u0430\u0436\u0435\u043d\u0441\u043a\u043e\u0433\u043e",
        "api_key": "2Ff4JqCLvO",
        "check_type": "CL",
        "point_id": 12
    }
},
{
    "model": "check.printer",
    "pk": 6,
    "fields": {
        "name": "\u041a\u0443\u0445\u043d\u044f \u043d\u0430 \u0412\u043e\u043b\u043a\u043e\u0432\u0430",
        "api_key": "xtfrHHdru9",
        "check_type": "KT",
        "point_id": 67
    }
},
{
    "model": "check.printer",
    "pk": 7,
    "fields": {
        "name": "\u041a\u043b\u0438\u0435\u043d\u0442 \u043d\u0430 \u0412\u043e\u043b\u043a\u043e\u0432\u0430",
        "api_key": "Jho1IMagZH",
        "check_type": "CL",
        "point_id": 67
    }
}
]
